Working with NHDPlusHR • nhdplusTools
…
(standalone <- dplyr::filter(standalone_demo, TerminalPa == standalone_demo_outlet$Hydroseq))

#> Simple feature collection with 5358 features and 57 fields
#> geometry type:  MULTILINESTRING
#> dimension:      XY
#> bbox:           xmin: -90.68076 ymin: 41.27482 xmax: -88.1999 ymax: 43.74949
#> epsg (SRID):    4269
#> proj4string:    +proj=longlat +ellps=GRS80 +towgs84=0,0,0,0,0,0,0 +no_defs
#> # A tibble: 5,358 x 58
#>    Permanent_Ident… FDate               Resolution GNIS_ID GNIS_Name LENGTHKM
#>  * <chr>            <dttm>                   <int> <chr>   <chr>        <dbl>
#>  1 156038282        2012-03-19 06:32:25          2 004155… Pecatoni…    1.34 
#>  2 155714162        2014-10-29 00:00:00          2 004248… Fairfiel…    0.417
#>  3 156035374        2012-03-19 06:35:08          2 015619… Gordon C…    0.39 
#>  4 145600320        2012-03-19 06:34:47          2 004168… Rock Cre…    0.352
#>  5 155712981        2012-03-19 07:05:43          2 <NA>    <NA>         0.034
#>  6 137417698        2012-03-18 18:07:30          2 015750… Sugar Ri…    0.798
#>  7 156037500        2012-03-19 06:33:10          2 <NA>    <NA>         0.009
#>  8 145599800        2012-03-19 06:34:47          2 004145… North Fo…    0.665
#>  9 143246785        2012-03-18 17:56:42          2 004168… Rock Riv…    0.165
#> 10 155712415        2012-03-19 07:05:51          2 004241… Willow C…    2.11 
#> # … with 5,348 more rows, and 52 more variables: REACHCODE <chr>,
#> #   FlowDir <int>, WBArea_Permanent_Identifier <chr>, FTYPE <int>, FCode <int>,
#> #   MainPath <int>, InNetwork <int>, VisibilityFilter <int>,
#> #   Shape_Length <dbl>, COMID <dbl>, VPUID <chr>, Enabled <int>,
#> #   Shape <MULTILINESTRING [°]>, StreamLeve <int>, StreamOrde <int>,
#> #   StreamCalc <int>, FromNode <dbl>, ToNode <dbl>, Hydroseq <dbl>,
#> #   LevelPathI <dbl>, Pathlength <dbl>, TerminalPa <dbl>, ArbolateSu <dbl>,
#> #   Divergence <int>, StartFlag <int>, TerminalFl <dbl>, UpLevelPat <dbl>,
#> #   UpHydroseq <dbl>, DnLevel <dbl>, DnLevelPat <dbl>, DnHydroseq <dbl>,
…
