U.S. Data and Package Basics • nhdplusTools
…
get_flowline_index() will work with a list of points too. For demonstration purposes, we can use the gages in our subset from above.

gage <- sf::read_sf(output_file, "Gage")

get_flowline_index(flowline, sf::st_geometry(gage), precision = 10)
#> Warning in get_flowline_index(flowline, sf::st_geometry(gage), precision = 10):
#> crs of lines and points don't match. attempting st_transform of points
#> # A tibble: 33 x 5
#>       id    COMID REACHCODE      REACH_meas     offset
#>    <int>    <int> <chr>               <dbl>      <dbl>
#>  1     1 13293744 07090002007743     29.3   0.0000160 
#>  2     2 13294276 07090002008387     14.8   0.0000123 
#>  3     3 13294264 07090002007650     56.4   0.0000209 
#>  4     4 13293750 07090002007373     42.5   0.0000253 
#>  5     5 13294312 07090002008383      1.22  0.00000298
#>  6     6 13294264 07090002007650     41.1   0.0000331 
#>  7     7 13294264 07090002007650      2.09  0.00000226
#>  8     8 13293688 07090002007660    100     0.0209    
#>  9     9 13294300 07090002008379     85.4   0.0000161 
#> 10    10 13293690 07090002007648      0.764 0.0000140 
#> # ... with 23 more rows
…
