Get Cross Section Endpoints (experimental) — get_xs_points • nhdplusTools
…
    sf data.frame containing points retrieved.

    Examples

# \donttest{
point1 <- sf::st_sfc(sf::st_point(x = c(-105.9667, 36.17602)), crs = 4326)
point2 <- sf::st_sfc(sf::st_point(x = c(-105.97768, 36.17526)), crs = 4326)

(xs <- get_xs_points(point1, point2, 100))
#> Simple feature collection with 101 features and 3 fields
#> Geometry type: POINT
#> Dimension:     XY
#> Bounding box:  xmin: -105.9776 ymin: 36.17531 xmax: -105.9667 ymax: 36.176
#> Geodetic CRS:  WGS 84
#> # A tibble: 101 x 4
#>    id    distance_m elevation_m             geometry
#>    <chr>      <dbl>       <dbl>          <POINT [°]>
#>  1 0            0         1779.   (-105.9667 36.176)
#>  2 1           12.2       1778. (-105.9668 36.17599)
#>  3 2           24.3       1778. (-105.9669 36.17599)
#>  4 3           36.5       1778.  (-105.967 36.17598)
#>  5 4           48.6       1776. (-105.9671 36.17597)
#>  6 5           60.8       1776. (-105.9672 36.17597)
#>  7 6           73.0       1776. (-105.9674 36.17596)
#>  8 7           85.1       1775. (-105.9675 36.17595)
#>  9 8           97.3       1775. (-105.9676 36.17594)
#> 10 9          109.        1774. (-105.9677 36.17594)
#> # ... with 91 more rows
…
