Get Terminal ID — get_terminal • nhdplusTools
…
source(system.file("extdata", "walker_data.R", package = "nhdplusTools"))

fl <- dplyr::select(prepare_nhdplus(walker_flowline, 0, 0),
                    ID = COMID, toID = toCOMID)
#> Warning: removing geometry
#> Warning: Removed 0 flowlines that don't apply.
#>  Includes: Coastlines, non-dendritic paths, 
#> and networks with drainage area less than 0 sqkm, and drainage basins smaller than 0

outlet <- fl$ID[which(!fl$toID %in% fl$ID)]

get_terminal(fl, outlet)
#> Warning: In `d' `NA' elements were replaced with string "NA"
#> # A tibble: 62 x 2
#>    terminalID      ID
#>         <int>   <int>
#>  1    5329303 5329303
#>  2    5329303 5329293
#>  3    5329303 5329305
#>  4    5329303 5329317
#>  5    5329303 5329315
#>  6    5329303 5329339
#>  7    5329303 5329343
#>  8    5329303 5329357
#>  9    5329303 5329365
#> 10    5329303 5329373
#> # … with 52 more rows
…
