Get NHDPlus HiRes — get_nhdplushr • nhdplusTools
…
get_nhdplushr(download_dir,
              file.path(download_dir, "nhdplus_0302-03.gpkg"),
              layers = "NHDFlowline", overwrite = TRUE,
              min_size_sqkm = 10, simp = 10, proj = "+init=epsg:5070")
#> Warning: GDAL Message 1: +init=epsg:XXXX syntax is deprecated. It might return a CRS with a non-EPSG compliant axis order.
#> $NHDFlowline
#> Simple feature collection with 45242 features and 57 fields
#> geometry type:  LINESTRING
#> dimension:      XY
#> bbox:           xmin: 1414457 ymin: 1355556 xmax: 1795513 ymax: 1640020
#> projected CRS:  NAD83 / Conus Albers
#> # A tibble: 45,242 x 58
#>    Permanent_Ident… FDate               Resolution GNIS_ID GNIS_Name LENGTHKM
#>    <chr>            <dttm>                   <int> <chr>   <chr>        <dbl>
#>  1 31374279         2012-03-11 01:59:53          2 009821… Buffalo …    0.029
#>  2 31373805         2012-03-11 01:59:53          2 009821… Buffalo …    0.092
#>  3 31368135         2012-03-11 03:01:26          2 009920… Perry Cr…    0.513
#>  4 129726996        2012-03-10 22:04:41          2 010239… Crooked …    0.74 
#>  5 129744832        2012-03-10 22:03:34          2 010241… Lynch Cr…    0.059
#>  6 129725633        2012-03-10 22:00:22          2 NA      NA           1.44 
#>  7 129723709        2012-03-10 22:03:44          2 009814… Billys C…    0.889
#>  8 31402583         2012-03-11 01:58:45          2 NA      NA           0.371
#>  9 129721510        2012-03-10 22:04:01          2 010238… Buffalo …    0.39 
#> 10 129720736        2012-03-10 22:01:17          2 010238… Buffalo …    0.116
#> # … with 45,232 more rows, and 52 more variables: REACHCODE <chr>,
#> #   FlowDir <int>, WBArea_Permanent_Identifier <chr>, FTYPE <int>, FCode <int>,
#> #   MainPath <int>, InNetwork <int>, VisibilityFilter <int>,
#> #   Shape_Length <dbl>, COMID <dbl>, VPUID <chr>, Enabled <int>,
#> #   Shape <LINESTRING [m]>, StreamLeve <int>, StreamOrde <int>,
#> #   StreamCalc <int>, FromNode <dbl>, ToNode <dbl>, Hydroseq <dbl>,
#> #   LevelPathI <dbl>, Pathlength <dbl>, TerminalPa <dbl>, ArbolateSu <dbl>,
#> #   Divergence <int>, StartFlag <int>, TerminalFl <dbl>, UpLevelPat <dbl>,
#> #   UpHydroseq <dbl>, DnLevel <dbl>, DnLevelPat <dbl>, DnHydroseq <dbl>,
…
