Get Flowline Index — get_flowline_index • nhdplusTools
…
get_flowline_index(sample_flines,
                   sf::st_sfc(list(sf::st_point(c(-76.86934, 39.49328)),
                                   sf::st_point(c(-76.91711, 39.40884)),
                                   sf::st_point(c(-76.88081, 39.36354))),
                              crs = 4326),
                   search_radius = 0.2,
                   max_matches = 10)
#> # A tibble: 30 x 5
#>       id    COMID REACHCODE      REACH_meas    offset
#>    <int>    <int> <chr>               <dbl>     <dbl>
#>  1     1 11688298 02060003000579        0   0.0000603
#>  2     2 11688808 02060003000519       53.6 0.000564 
#>  3     3 11688980 02060003000253       75.4 0.000310 
#>  4     1 11689926 02060003001467      100   0.0000603
#>  5     3 11688950 02060003000254       18.5 0.00113  
#>  6     1 11689928 02060003001468        0   0.00203  
#>  7     1 11689978 02060003001472      100   0.00203  
#>  8     1 11690530 02060003000585        0   0.00285  
#>  9     1 11690490 02060003000580        0   0.00285  
#> 10     3 11688948 02060003000516        0   0.00321  
#> # ... with 20 more rows
…
