Subset by Raster Processing Unit. — subset_rpu • nhdplusTools
…
nhdplus_path(sample_data)

staged_nhdplus <- stage_national_data(output_path = tempdir())

sample_flines <- readRDS(staged_nhdplus$flowline)

subset_rpu(sample_flines, rpu = "07b")

#> Simple feature collection with 267 features and 138 fields
#> Geometry type: MULTILINESTRING
#> Dimension:     XY
#> Bounding box:  xmin: -89.58537 ymin: 42.95163 xmax: -89.19935 ymax: 43.30179
#> Geodetic CRS:  GRS 1980(IUGG, 1980)
#> # A tibble: 267 x 139
#>      COMID FDATE               RESOLUTION GNIS_ID GNIS_NAME  LENGTHKM REACHCODE 
#>  *   <int> <dttm>              <chr>      <chr>   <chr>         <dbl> <chr>     
#>  1  1.33e7 1999-10-15 00:00:00 Medium     "15770~ "Yahara R~    0.091 070900020~
#>  2  1.33e7 2009-05-01 00:00:00 Medium     "15770~ "Yahara R~    2.85  070900020~
#>  3  1.33e7 2009-05-01 00:00:00 Medium     "15770~ "Yahara R~    0.041 070900020~
#>  4  1.33e7 1999-10-29 00:00:00 Medium     "15770~ "Yahara R~    0.096 070900020~
#>  5  1.33e7 1999-10-29 00:00:00 Medium     "15770~ "Yahara R~    1.72  070900020~
#>  6  1.33e7 1999-10-15 00:00:00 Medium     " "     " "           4.59  070900020~
#>  7  1.33e7 1999-10-15 00:00:00 Medium     "15606~ "Murphys ~    4.53  070900020~
#>  8  1.33e7 1999-10-15 00:00:00 Medium     "15606~ "Murphys ~    2.70  070900020~
#>  9  1.33e7 1999-10-29 00:00:00 Medium     "15751~ "Swan Cre~    0.111 070900020~
#> 10  1.33e7 1999-10-15 00:00:00 Medium     "15751~ "Swan Cre~    1.44  070900020~
#> # ... with 257 more rows, and 132 more variables: FLOWDIR <chr>,
#> #   WBAREACOMI <int>, FTYPE <chr>, FCODE <int>, Shape_Length <dbl>,
#> #   StreamLeve <int>, StreamOrde <int>, StreamCalc <int>, FromNode <dbl>,
#> #   ToNode <dbl>, Hydroseq <dbl>, LevelPathI <dbl>, Pathlength <dbl>,
#> #   TerminalPa <dbl>, ArbolateSu <dbl>, Divergence <int>, StartFlag <int>,
#> #   TerminalFl <dbl>, DnLevel <dbl>, UpLevelPat <dbl>, UpHydroseq <dbl>,
#> #   DnLevelPat <dbl>, DnMinorHyd <dbl>, DnDrainCou <int>, DnHydroseq <dbl>,
#> #   FromMeas <dbl>, ToMeas <dbl>, RtnDiv <int>, VPUIn <int>, VPUOut <int>,
#> #   AreaSqKM <dbl>, TotDASqKM <dbl>, DivDASqKM <dbl>, Tidal <int>, TOTMA <dbl>,
…
